OpenLane/desings/signal_generator/rtl/wf_signal_generator.vcd
$date
	Mon Sep 23 17:39:27 2024
$end
$version
	Icarus Verilog
$end
$timescale
	1ps
$end
$scope module tb_signal_generator $end
$var wire 32 ! o_wb_data [31:0] $end
$var wire 1 " o_wb_ack $end
$var wire 5 # o_test [4:0] $end
$var wire 1 $ o_phi_r $end
$var wire 1 % o_phi_p $end
$var wire 1 & o_phi_l2 $end
$var wire 1 ' o_phi_l1 $end
$var reg 1 ( i_clk $end
$var reg 1 ) i_enable $end
$var reg 4 * i_f_select [3:0] $end
$var reg 1 + i_test $end
$var reg 32 , i_wb_addr [31:0] $end
$var reg 1 - i_wb_clk $end
$var reg 1 . i_wb_cyc $end
$var reg 32 / i_wb_data [31:0] $end
$var reg 1 0 i_wb_rst $end
$var reg 1 1 i_wb_stb $end
$var reg 1 2 i_wb_we $end
$scope module dut $end
$var wire 1 ( i_clk $end
$var wire 1 ) i_enable $end
$var wire 4 3 i_f_select [3:0] $end
$var wire 1 + i_test $end
$var wire 32 4 i_wb_addr [31:0] $end
$var wire 1 - i_wb_clk $end
$var wire 1 . i_wb_cyc $end
$var wire 32 5 i_wb_data [31:0] $end
$var wire 1 0 i_wb_rst $end
$var wire 1 1 i_wb_stb $end
$var wire 1 2 i_wb_we $end
$var wire 4 6 i_f_select_mux [3:0] $end
$var wire 1 7 i_enable_mux $end
$var wire 1 8 i_clk_mux $end
$var reg 2 9 ciclos [1:0] $end
$var reg 32 : contador [31:0] $end
$var reg 14 ; contador_waves [13:0] $end
$var reg 2 < estado [1:0] $end
$var reg 4 = f_selected [3:0] $end
$var reg 1 > i_clk_wb $end
$var reg 1 ? i_enable_wb $end
$var reg 4 @ i_f_select_wb [3:0] $end
$var reg 1 A i_test_reg $end
$var reg 1 ' o_phi_l1 $end
$var reg 1 & o_phi_l2 $end
$var reg 1 % o_phi_p $end
$var reg 1 $ o_phi_r $end
$var reg 5 B o_test [4:0] $end
$var reg 1 " o_wb_ack $end
$var reg 32 C o_wb_data [31:0] $end
$var reg 1 D pulse_ended $end
$var reg 2 E sig_estado [1:0] $end
$scope module clock_mux $end
$var wire 1 ( i_phi_p $end
$var wire 1 > i_phi_r $end
$var wire 1 + i_selector $end
$var wire 1 8 o_salida $end
$upscope $end
$scope module enable_mux $end
$var wire 1 ) i_phi_p $end
$var wire 1 ? i_phi_r $end
$var wire 1 + i_selector $end
$var wire 1 7 o_salida $end
$upscope $end
$scope module freq_mux0 $end
$var wire 1 F i_phi_p $end
$var wire 1 G i_phi_r $end
$var wire 1 + i_selector $end
$var wire 1 H o_salida $end
$upscope $end
$scope module freq_mux1 $end
$var wire 1 I i_phi_p $end
$var wire 1 J i_phi_r $end
$var wire 1 + i_selector $end
$var wire 1 K o_salida $end
$upscope $end
$scope module freq_mux2 $end
$var wire 1 L i_phi_p $end
$var wire 1 M i_phi_r $end
$var wire 1 + i_selector $end
$var wire 1 N o_salida $end
$upscope $end
$scope module freq_mux3 $end
$var wire 1 O i_phi_p $end
$var wire 1 P i_phi_r $end
$var wire 1 + i_selector $end
$var wire 1 Q o_salida $end
$upscope $end
$upscope $end
$upscope $end
$enddefinitions $end
#0
$dumpvars
xQ
xP
0O
xN
xM
0L
xK
xJ
0I
xH
xG
0F
b0 E
xD
bx C
bx B
xA
bx @
x?
x>
b0 =
b0 <
b0 ;
b0 :
b0 9
x8
x7
bx 6
b0 5
b110000000000000000000000011000 4
b0 3
12
11
x0
b0 /
1.
0-
b110000000000000000000000011000 ,
1+
b0 *
1)
1(
0'
1&
1%
1$
bx #
x"
bx !
$end
#20000
08
1A
1"
0>
1-
#40000
0-
#60000
1-
#80000
0-
#100000
0D
b1 :
18
1>
1-
b1 /
b1 5
0(
#120000
0-
#140000
1-
#160000
0-
#180000
1-
#200000
0-
b0 /
b0 5
1(
#220000
08
0>
1-
#240000
0-
#260000
1-
#280000
0-
#300000
b10 :
18
1>
1-
b1 /
b1 5
0(
#320000
0-
#340000
1-
#360000
0-
#380000
1-
#400000
0-
b0 /
b0 5
1(
#420000
08
0>
1-
#440000
0-
#460000
1-
#480000
0-
#500000
b11 :
18
1>
1-
b1 /
b1 5
0(
#520000
0-
#540000
1-
#560000
0-
#580000
1-
#600000
0-
b0 /
b0 5
1(
#620000
08
0>
1-
#640000
0-
#660000
1-
#680000
0-
#700000
b100 :
18
1>
1-
b1 /
b1 5
0(
#720000
0-
#740000
1-
#760000
0-
#780000
1-
#800000
0-
b0 /
b0 5
1(
#820000
08
0>
1-
#840000
0-
#860000
1-
#880000
0-
#900000
b101 :
18
1>
1-
b1 /
b1 5
0(
#920000
0-
#940000
1-
#960000
0-
#980000
1-
#1000000
0-
b0 /
b0 5
1(
#1020000
08
0>
1-
#1040000
0-
#1060000
1-
#1080000
0-
#1100000
b110 :
18
1>
1-
b1 /
b1 5
0(
#1120000
0-
#1140000
1-
#1160000
0-
#1180000
1-
#1200000
0-
b0 /
b0 5
1(
#1220000
08
0>
1-
#1240000
0-
#1260000
1-
#1280000
0-
#1300000
b111 :
18
1>
1-
b1 /
b1 5
0(
#1320000
0-
#1340000
1-
#1360000
0-
#1380000
1-
#1400000
0-
b0 /
b0 5
1(
#1420000
08
0>
1-
#1440000
0-
#1460000
1-
#1480000
0-
#1500000
b1000 :
18
1>
1-
b1 /
b1 5
0(
#1520000
0-
#1540000
1-
#1560000
0-
#1580000
1-
#1600000
0-
b0 /
b0 5
1(
#1620000
08
0>
1-
#1640000
0-
#1660000
1-
#1680000
0-
#1700000
b1001 :
18
1>
1-
b1 /
b1 5
0(
#1720000
0-
#1740000
1-
#1760000
0-
#1780000
1-
#1800000
0-
b0 /
b0 5
1(
#1820000
08
0>
1-
#1840000
0-
#1860000
1-
#1880000
0-
#1900000
b1010 :
18
1>
1-
b1 /
b1 5
0(
#1920000
0-
#1940000
1-
#1960000
0-
#1980000
1-
#2000000
0-
b0 /
b0 5
1(
#2020000
08
0>
1-
#2040000
0-
#2060000
1-
#2080000
0-
#2100000
b1011 :
18
1>
1-
b1 /
b1 5
0(
#2120000
0-
#2140000
1-
#2160000
0-
#2180000
1-
#2200000
0-
b0 /
b0 5
1(
#2220000
08
0>
1-
#2240000
0-
#2260000
1-
#2280000
0-
#2300000
b1100 :
18
1>
1-
b1 /
b1 5
0(
#2320000
0-
#2340000
1-
#2360000
0-
#2380000
1-
#2400000
0-
b0 /
b0 5
1(
#2420000
08
0>
1-
#2440000
0-
#2460000
1-
#2480000
0-
#2500000
b1101 :
18
1>
1-
b1 /
b1 5
0(
#2520000
0-
#2540000
1-
#2560000
0-
#2580000
1-
#2600000
0-
b0 /
b0 5
1(
#2620000
08
0>
1-
#2640000
0-
#2660000
1-
#2680000
0-
#2700000
b1110 :
18
1>
1-
b1 /
b1 5
0(
#2720000
0-
#2740000
1-
#2760000
0-
#2780000
1-
#2800000
0-
b0 /
b0 5
1(
#2820000
08
0>
1-
#2840000
0-
#2860000
1-
#2880000
0-
#2900000
b1111 :
18
1>
1-
b1 /
b1 5
0(
#2920000
0-
#2940000
1-
#2960000
0-
#2980000
1-
#3000000
0-
b0 /
b0 5
1(
#3020000
08
0>
1-
#3040000
0-
#3060000
1-
#3080000
0-
#3100000
b10000 :
18
1>
1-
b1 /
b1 5
0(
#3120000
0-
#3140000
1-
#3160000
0-
#3180000
1-
#3200000
0-
b0 /
b0 5
1(
#3220000
08
0>
1-
#3240000
0-
#3260000
1-
#3280000
0-
#3300000
b10001 :
18
1>
1-
b1 /
b1 5
0(
#3320000
0-
#3340000
1-
#3360000
0-
#3380000
1-
#3400000
0-
b0 /
b0 5
1(
#3420000
08
0>
1-
#3440000
0-
#3460000
1-
#3480000
0-
#3500000
b10010 :
18
1>
1-
b1 /
b1 5
0(
#3520000
0-
#3540000
1-
#3560000
0-
#3580000
1-
#3600000
0-
b0 /
b0 5
1(
#3620000
08
0>
1-
#3640000
0-
#3660000
1-
#3680000
0-
#3700000
b1 E
b10011 :
18
1>
1-
b1 /
b1 5
0(
#3720000
0-
#3740000
1-
#3760000
0-
#3780000
1-
#3800000
0-
b0 /
b0 5
1(
#3820000
08
0>
1-
#3840000
0-
#3860000
1-
#3880000
0-
#3900000
0%
0$
0&
1'
b1 <
b10100 :
18
1>
1-
b1 /
b1 5
0(
#3920000
0-
#3940000
1-
#3960000
0-
#3980000
1-
#4000000
0-
b0 /
b0 5
1(
#4020000
08
0>
1-
#4040000
0-
#4060000
1-
#4080000
0-
#4100000
b10101 :
b1 9
18
1>
1-
b1 /
b1 5
0(
#4120000
0-
#4140000
1-
#4160000
0-
#4180000
1-
#4200000
0-
b0 /
b0 5
1(
#4220000
08
0>
1-
#4240000
0-
#4260000
1-
#4280000
0-
#4300000
1$
1&
0'
b10 9
b10110 :
18
1>
1-
b1 /
b1 5
0(
#4320000
0-
#4340000
1-
#4360000
0-
#4380000
1-
#4400000
0-
b0 /
b0 5
1(
#4420000
08
0>
1-
#4440000
0-
#4460000
1-
#4480000
0-
#4500000
0$
b10111 :
b11 9
18
1>
1-
b1 /
b1 5
0(
#4520000
0-
#4540000
1-
#4560000
0-
#4580000
1-
#4600000
0-
b0 /
b0 5
1(
#4620000
08
0>
1-
#4640000
0-
#4660000
1-
#4680000
0-
#4700000
0&
1'
b1 ;
b0 9
b11000 :
18
1>
1-
b1 /
b1 5
0(
#4720000
0-
#4740000
1-
#4760000
0-
#4780000
1-
#4800000
0-
b0 /
b0 5
1(
#4820000
08
0>
1-
#4840000
0-
#4860000
1-
#4880000
0-
#4900000
1-
0(
#4920000
0-
#4940000
1-
#4960000
0-
#4980000
1-
#5000000
0-
b1 /
b1 5
1(
#5020000
b11001 :
b1 9
18
1>
1-
#5040000
0-
#5060000
1-
#5080000
0-
#5100000
08
0>
1-
b0 /
b0 5
0(
#5120000
0-
#5140000
1-
#5160000
0-
#5180000
1-
#5200000
0-
b1 /
b1 5
1(
#5220000
1$
1&
0'
b10 9
b11010 :
18
1>
1-
#5240000
0-
#5260000
1-
#5280000
0-
#5300000
08
0>
1-
b0 /
b0 5
0(
#5320000
0-
#5340000
1-
#5360000
0-
#5380000
1-
#5400000
0-
b1 /
b1 5
1(
#5420000
0$
b11011 :
b11 9
18
1>
1-
#5440000
0-
#5460000
1-
#5480000
0-
#5500000
08
0>
1-
b0 /
b0 5
0(
#5520000
0-
#5540000
1-
#5560000
0-
#5580000
1-
#5600000
0-
b1 /
b1 5
1(
#5620000
0&
1'
b10 ;
b0 9
b11100 :
18
1>
1-
#5640000
0-
#5660000
1-
#5680000
0-
#5700000
08
0>
1-
b0 /
b0 5
0(
#5720000
0-
#5740000
1-
#5760000
0-
#5780000
1-
#5800000
0-
b1 /
b1 5
1(
#5820000
b11101 :
b1 9
18
1>
1-
#5840000
0-
#5860000
1-
#5880000
0-
#5900000
08
0>
1-
b0 /
b0 5
0(
#5920000
0-
#5940000
1-
#5960000
0-
#5980000
1-
#6000000
0-
b1 /
b1 5
1(
#6020000
1$
1&
0'
b10 9
b11110 :
18
1>
1-
#6040000
0-
#6060000
1-
#6080000
0-
#6100000
08
0>
1-
b0 /
b0 5
0(
#6120000
0-
#6140000
1-
#6160000
0-
#6180000
1-
#6200000
0-
b1 /
b1 5
1(
#6220000
0$
b11111 :
b11 9
18
1>
1-
#6240000
0-
#6260000
1-
#6280000
0-
#6300000
08
0>
1-
b0 /
b0 5
0(
#6320000
0-
#6340000
1-
#6360000
0-
#6380000
1-
#6400000
0-
b1 /
b1 5
1(
#6420000
0&
1'
b11 ;
b0 9
b100000 :
18
1>
1-
#6440000
0-
#6460000
1-
#6480000
0-
#6500000
08
0>
1-
b0 /
b0 5
0(
#6520000
0-
#6540000
1-
#6560000
0-
#6580000
1-
#6600000
0-
b1 /
b1 5
1(
#6620000
b100001 :
b1 9
18
1>
1-
#6640000
0-
#6660000
1-
#6680000
0-
#6700000
08
0>
1-
b0 /
b0 5
0(
#6720000
0-
#6740000
1-
#6760000
0-
#6780000
1-
#6800000
0-
b1 /
b1 5
1(
#6820000
1$
1&
0'
b10 9
b100010 :
18
1>
1-
#6840000
0-
#6860000
1-
#6880000
0-
#6900000
08
0>
1-
b0 /
b0 5
0(
#6920000
0-
#6940000
1-
#6960000
0-
#6980000
1-
#7000000
0-
b1 /
b1 5
1(
#7020000
0$
b100011 :
b11 9
18
1>
1-
#7040000
0-
#7060000
1-
#7080000
0-
#7100000
08
0>
1-
b0 /
b0 5
0(
#7120000
0-
#7140000
1-
#7160000
0-
#7180000
1-
#7200000
0-
b1 /
b1 5
1(
#7220000
0&
1'
b100 ;
b0 9
b100100 :
18
1>
1-
#7240000
0-
#7260000
1-
#7280000
0-
#7300000
08
0>
1-
b0 /
b0 5
0(
#7320000
0-
#7340000
1-
#7360000
0-
#7380000
1-
#7400000
0-
b1 /
b1 5
1(
#7420000
b100101 :
b1 9
18
1>
1-
#7440000
0-
#7460000
1-
#7480000
0-
#7500000
08
0>
1-
b0 /
b0 5
0(
#7520000
0-
#7540000
1-
#7560000
0-
#7580000
1-
#7600000
0-
b1 /
b1 5
1(
#7620000
1$
1&
0'
b10 9
b100110 :
18
1>
1-
#7640000
0-
#7660000
1-
#7680000
0-
#7700000
08
0>
1-
b0 /
b0 5
0(
#7720000
0-
#7740000
1-
#7760000
0-
#7780000
1-
#7800000
0-
b1 /
b1 5
1(
#7820000
0$
b100111 :
b11 9
18
1>
1-
#7840000
0-
#7860000
1-
#7880000
0-
#7900000
08
0>
1-
b0 /
b0 5
0(
#7920000
0-
#7940000
1-
#7960000
0-
#7980000
1-
#8000000
0-
b1 /
b1 5
1(
#8020000
0&
1'
b101 ;
b0 9
b101000 :
18
1>
1-
#8040000
0-
#8060000
1-
#8080000
0-
#8100000
08
0>
1-
b0 /
b0 5
0(
#8120000
0-
#8140000
1-
#8160000
0-
#8180000
1-
#8200000
0-
b1 /
b1 5
1(
#8220000
b101001 :
b1 9
18
1>
1-
#8240000
0-
#8260000
1-
#8280000
0-
#8300000
08
0>
1-
b0 /
b0 5
0(
#8320000
0-
#8340000
1-
#8360000
0-
#8380000
1-
#8400000
0-
b1 /
b1 5
1(
#8420000
1$
1&
0'
b10 9
b101010 :
18
1>
1-
#8440000
0-
#8460000
1-
#8480000
0-
#8500000
08
0>
1-
b0 /
b0 5
0(
#8520000
0-
#8540000
1-
#8560000
0-
#8580000
1-
#8600000
0-
b1 /
b1 5
1(
#8620000
0$
b101011 :
b11 9
18
1>
1-
#8640000
0-
#8660000
1-
#8680000
0-
#8700000
08
0>
1-
b0 /
b0 5
0(
#8720000
0-
#8740000
1-
#8760000
0-
#8780000
1-
#8800000
0-
b1 /
b1 5
1(
#8820000
0&
1'
b110 ;
b0 9
b101100 :
18
1>
1-
#8840000
0-
#8860000
1-
#8880000
0-
#8900000
08
0>
1-
b0 /
b0 5
0(
#8920000
0-
#8940000
1-
#8960000
0-
#8980000
1-
#9000000
0-
b1 /
b1 5
1(
#9020000
b101101 :
b1 9
18
1>
1-
#9040000
0-
#9060000
1-
#9080000
0-
#9100000
08
0>
1-
b0 /
b0 5
0(
#9120000
0-
#9140000
1-
#9160000
0-
#9180000
1-
#9200000
0-
b1 /
b1 5
1(
#9220000
1$
1&
0'
b10 9
b101110 :
18
1>
1-
#9240000
0-
#9260000
1-
#9280000
0-
#9300000
08
0>
1-
b0 /
b0 5
0(
#9320000
0-
#9340000
1-
#9360000
0-
#9380000
1-
#9400000
0-
b1 /
b1 5
1(
#9420000
0$
b101111 :
b11 9
18
1>
1-
#9440000
0-
#9460000
1-
#9480000
0-
#9500000
08
0>
1-
b0 /
b0 5
0(
#9520000
0-
#9540000
1-
#9560000
0-
#9580000
1-
#9600000
0-
b1 /
b1 5
1(
#9620000
0&
1'
b111 ;
b0 9
b110000 :
18
1>
1-
#9640000
0-
#9660000
1-
#9680000
0-
#9700000
08
0>
1-
b0 /
b0 5
0(
#9720000
0-
#9740000
1-
#9760000
0-
#9780000
1-
#9800000
0-
1(
#9820000
1-
#9840000
0-
#9860000
1-
#9880000
0-
#9900000
b110001 :
b1 9
18
1>
1-
b1 /
b1 5
0(
#9920000
0-
#9940000
1-
#9960000
0-
#9980000
1-
#10000000
0-
b0 /
b0 5
1(
#10020000
08
0>
1-
#10040000
0-
#10060000
1-
#10080000
0-
#10100000
1$
1&
0'
b10 9
b110010 :
18
1>
1-
b1 /
b1 5
0(
#10120000
0-
#10140000
1-
#10160000
0-
#10180000
1-
#10200000
0-
b0 /
b0 5
1(
#10220000
08
0>
1-
#10240000
0-
#10260000
1-
#10280000
0-
#10300000
0$
b110011 :
b11 9
18
1>
1-
b1 /
b1 5
0(
#10320000
0-
#10340000
1-
#10360000
0-
#10380000
1-
#10400000
0-
b0 /
b0 5
1(
#10420000
08
0>
1-
#10440000
0-
#10460000
1-
#10480000
0-
#10500000
0&
1'
b1000 ;
b0 9
b110100 :
18
1>
1-
b1 /
b1 5
0(
#10520000
0-
#10540000
1-
#10560000
0-
#10580000
1-
#10600000
0-
b0 /
b0 5
1(
#10620000
08
0>
1-
#10640000
0-
#10660000
1-
#10680000
0-
#10700000
b110101 :
b1 9
18
1>
1-
b1 /
b1 5
0(
#10720000
0-
#10740000
1-
#10760000
0-
#10780000
1-
#10800000
0-
b0 /
b0 5
1(
#10820000
08
0>
1-
#10840000
0-
#10860000
1-
#10880000
0-
#10900000
1$
1&
0'
b10 9
b110110 :
18
1>
1-
b1 /
b1 5
0(
#10920000
0-
#10940000
1-
#10960000
0-
#10980000
1-
#11000000
0-
b0 /
b0 5
1(
#11020000
08
0>
1-
#11040000
0-
#11060000
1-
#11080000
0-
#11100000
0$
b110111 :
b11 9
18
1>
1-
b1 /
b1 5
0(
#11120000
0-
#11140000
1-
#11160000
0-
#11180000
1-
#11200000
0-
b0 /
b0 5
1(
#11220000
08
0>
1-
#11240000
0-
#11260000
1-
#11280000
0-
#11300000
0&
1'
b1001 ;
b0 9
b111000 :
18
1>
1-
b1 /
b1 5
0(
#11320000
0-
#11340000
1-
#11360000
0-
#11380000
1-
#11400000
0-
b0 /
b0 5
1(
#11420000
08
0>
1-
#11440000
0-
#11460000
1-
#11480000
0-
#11500000
b111001 :
b1 9
18
1>
1-
b1 /
b1 5
0(
#11520000
0-
#11540000
1-
#11560000
0-
#11580000
1-
#11600000
0-
b0 /
b0 5
1(
#11620000
08
0>
1-
#11640000
0-
#11660000
1-
#11680000
0-
#11700000
1$
1&
0'
b10 9
b111010 :
18
1>
1-
b1 /
b1 5
0(
#11720000
0-
#11740000
1-
#11760000
0-
#11780000
1-
#11800000
0-
b0 /
b0 5
1(
#11820000
08
0>
1-
#11840000
0-
#11860000
1-
#11880000
0-
#11900000
0$
b111011 :
b11 9
18
1>
1-
b1 /
b1 5
0(
#11920000
0-
#11940000
1-
#11960000
0-
#11980000
1-
#12000000
0-
b0 /
b0 5
1(
#12020000
08
0>
1-
#12040000
0-
#12060000
1-
#12080000
0-
#12100000
0&
1'
b1010 ;
b0 9
b111100 :
18
1>
1-
b1 /
b1 5
0(
#12120000
0-
#12140000
1-
#12160000
0-
#12180000
1-
#12200000
0-
b0 /
b0 5
1(
#12220000
08
0>
1-
#12240000
0-
#12260000
1-
#12280000
0-
#12300000
b111101 :
b1 9
18
1>
1-
b1 /
b1 5
0(
#12320000
0-
#12340000
1-
#12360000
0-
#12380000
1-
#12400000
0-
b0 /
b0 5
1(
#12420000
08
0>
1-
#12440000
0-
#12460000
1-
#12480000
0-
#12500000
1$
1&
0'
b10 9
b111110 :
18
1>
1-
b1 /
b1 5
0(
#12520000
0-
#12540000
1-
#12560000
0-
#12580000
1-
#12600000
0-
b0 /
b0 5
1(
#12620000
08
0>
1-
#12640000
0-
#12660000
1-
#12680000
0-
#12700000
0$
b111111 :
b11 9
18
1>
1-
b1 /
b1 5
0(
#12720000
0-
#12740000
1-
#12760000
0-
#12780000
1-
#12800000
0-
b0 /
b0 5
1(
#12820000
08
0>
1-
#12840000
0-
#12860000
1-
#12880000
0-
#12900000
0&
1'
b1011 ;
b0 9
b1000000 :
18
1>
1-
b1 /
b1 5
0(
#12920000
0-
#12940000
1-
#12960000
0-
#12980000
1-
#13000000
0-
b0 /
b0 5
1(
#13020000
08
0>
1-
#13040000
0-
#13060000
1-
#13080000
0-
#13100000
b1000001 :
b1 9
18
1>
1-
b1 /
b1 5
0(
#13120000
0-
#13140000
1-
#13160000
0-
#13180000
1-
#13200000
0-
b0 /
b0 5
1(
#13220000
08
0>
1-
#13240000
0-
#13260000
1-
#13280000
0-
#13300000
1$
1&
0'
b10 9
b1000010 :
18
1>
1-
b1 /
b1 5
0(
#13320000
0-
#13340000
1-
#13360000
0-
#13380000
1-
#13400000
0-
b0 /
b0 5
1(
#13420000
08
0>
1-
#13440000
0-
#13460000
1-
#13480000
0-
#13500000
0$
b1000011 :
b11 9
18
1>
1-
b1 /
b1 5
0(
#13520000
0-
#13540000
1-
#13560000
0-
#13580000
1-
#13600000
0-
b0 /
b0 5
1(
#13620000
08
0>
1-
#13640000
0-
#13660000
1-
#13680000
0-
#13700000
0&
1'
b1100 ;
b0 9
b1000100 :
18
1>
1-
b1 /
b1 5
0(
#13720000
0-
#13740000
1-
#13760000
0-
#13780000
1-
#13800000
0-
b0 /
b0 5
1(
#13820000
08
0>
1-
#13840000
0-
#13860000
1-
#13880000
0-
#13900000
b1000101 :
b1 9
18
1>
1-
b1 /
b1 5
0(
#13920000
0-
#13940000
1-
#13960000
0-
#13980000
1-
#14000000
0-
b0 /
b0 5
1(
#14020000
08
0>
1-
#14040000
0-
#14060000
1-
#14080000
0-
#14100000
1$
1&
0'
b10 9
b1000110 :
18
1>
1-
b1 /
b1 5
0(
#14120000
0-
#14140000
1-
#14160000
0-
#14180000
1-
#14200000
0-
b0 /
b0 5
1(
#14220000
08
0>
1-
#14240000
0-
#14260000
1-
#14280000
0-
#14300000
0$
b1000111 :
b11 9
18
1>
1-
b1 /
b1 5
0(
#14320000
0-
#14340000
1-
#14360000
0-
#14380000
1-
#14400000
0-
b0 /
b0 5
1(
#14420000
08
0>
1-
#14440000
0-
#14460000
1-
#14480000
0-
#14500000
0&
1'
b1101 ;
b0 9
b1001000 :
18
1>
1-
b1 /
b1 5
0(
#14520000
0-
#14540000
1-
#14560000
0-
#14580000
1-
#14600000
0-
b0 /
b0 5
1(
#14620000
08
0>
1-
#14640000
0-
#14660000
1-
#14680000
0-
#14700000
07
0?
1-
b110000000000000000000000000000 ,
b110000000000000000000000000000 4
0(
